<?xml version="1.0" encoding="utf-8"?>
<!-- Generator: Adobe Illustrator 23.0.3, SVG Export Plug-In . SVG Version: 6.00 Build 0)  -->
<svg version="1.1" id="Layer_1" xmlns="http://www.w3.org/2000/svg" xmlns:xlink="http://www.w3.org/1999/xlink" x="0px" y="0px"
	 viewBox="0 0 900 900" style="enable-background:new 0 0 900 900; fill: #000" xml:space="preserve">
<g>
	<path d="M449.5,379.2c88.4,0,160.4-72,160.4-160.4c0-88.3-72-160.2-160.4-160.2s-160.4,72-160.4,160.4
		C289.1,307.3,361,379.2,449.5,379.2z M449.5,86.7c72.9,0,132.2,59.3,132.2,132.2c0,72.9-59.3,132.2-132.2,132.2
		s-132.2-59.3-132.2-132.2C317.3,146,376.6,86.7,449.5,86.7z"/>
	<path d="M594.6,398.1H304.9c-103.2,0-187.2,84-187.2,187.2v153.2c0,8,6.5,14.5,14.5,14.5c7.6,0,13.7-6.1,13.7-13.7v-154
		c0-87.7,71.3-159,159-159h64.5l30,57.9l-43.2,244.6c-2.1,11.6,1.1,23.5,8.6,32.7l53.5,65.1c8,9.7,19.7,14.7,31.4,14.7
		c9,0,18.1-3,25.6-9.1c2-1.7,3.9-3.6,5.6-5.6l53.5-65.1c7.5-9.2,10.7-21.1,8.6-32.7l-43.2-244.6l30-57.9h65
		c87.4,0,158.5,71.1,158.5,158.5v154.3c0,7.7,6.3,13.9,13.9,13.9c7.9,0,14.3-6.4,14.3-14.3v-154
		C781.3,481.8,697.4,398.1,594.6,398.1z M498.7,426.5L476.9,469h-54.6l-21.7-42.5H498.7z M515.7,734L515.7,734
		c0.7,3.7-0.3,7.4-2.7,10.3l-53.5,65.1c-2.2,2.7-5.4,4.4-8.8,4.8c-3.5,0.4-6.8-0.7-9.6-2.9c-0.7-0.6-1.3-1.1-1.9-1.9l-53.5-65.2
		c-2.4-2.8-3.4-6.6-2.7-10.2l42.1-237.7h48.3L515.7,734z"/>
</g>
</svg>
