<?xml version="1.0" encoding="utf-8"?>
<!-- Generator: Adobe Illustrator 23.0.3, SVG Export Plug-In . SVG Version: 6.00 Build 0)  -->
<svg version="1.1" id="Layer_1" xmlns="http://www.w3.org/2000/svg" xmlns:xlink="http://www.w3.org/1999/xlink" x="0px" y="0px"
	 viewBox="0 0 900 900" style="enable-background:new 0 0 900 900;" xml:space="preserve">
<g transform="translate(0,-952.36218)">
	<path d="M207,1039.4c-11.1,1.1-18.1,15.9-12,25.2c36.3,53.8,46.1,101.8,46.1,145.8c0,53.9-17.5,104.2-35.9,158.8
		c-18.4,54.6-37.4,113.5-37.4,183.3c0,69.4,5.6,128,51.7,196.2c2.9,4.5,8.2,7.3,13.5,7.4h415.4c5.9,0,11.7-3.5,14.4-8.7
		c2.8-5.2,2.4-11.9-0.9-16.8c-42-62.3-46.1-110.3-46.1-178.2c0-30.8,4.1-59.5,10.4-87c18.8-4.5,37.4-10.2,55-17.8
		c57.6-25,105.6-72.2,105.6-146.6v-106.9c0.1-9.3-9.1-17.4-18.3-16.3c-3.5,0.4-6.9,2.1-9.4,4.6l-73.6,73.6c2.2-14.8,3.6-30,3.6-45.6
		c0-49.1-11.8-104.8-51.7-163.9c-3-4.4-8.2-7.1-13.5-7.1C623.9,1039.4,207.5,1039.3,207,1039.4z M236.5,1072h378
		c32.3,50.8,42,96.4,42,138.5c0,29.9-5.3,58.5-13.2,87.6l-275.9,275.4c-6.1,6.1-6.1,17.1,0,23.2s17.1,6.1,23.2,0l117.8-117.8
		c25.2-0.3,54-1.9,83.2-6.4c-5,25.3-8.4,51.8-8.4,80.2c0,60.6,6,113.3,37.7,171H242.4c-37.5-58.7-42-105.9-42-171
		c0-63.8,17.6-118.7,35.9-173.1c18.3-54.4,37.4-108.2,37.4-169C273.7,1168.5,263.9,1121.5,236.5,1072z M754.3,1233.3v67.7
		c0,61.1-35.3,94.6-86,116.6c-38.2,16.5-82.9,23-124.5,26L754.3,1233.3z"/>
</g>
</svg>
